﻿ID;Image;Nom;Référence;Catégorie;Prix de base;Prix final;Quantité;État
127;http://www.bijouteriedeperles.fr/img/p/0.jpg;test;test;Accueil;1.000000;1;5;1
90;http://www.bijouteriedeperles.fr/img/p/1/0/9/109.jpg;"Bague Argent et perle de Tahiti Tara""""";BAARTA1P;Bagues en argent;100.000000;100;0;0
33;http://www.bijouteriedeperles.fr/img/p/5/0/50.jpg;Pendentif Tiki;PENTIKI;Pendentifs;33.500000;33.5;0;0
156;http://www.bijouteriedeperles.fr/img/p/2/2/6/226.jpg;Pendentif 10 perles de Tahiti;PEATRI10P;Pendentifs en argent;80.000000;80;50;1
98;http://www.bijouteriedeperles.fr/img/p/1/1/6/116.jpg;"Bague perle de Tahiti Alizée""""";BA1PALI;Bagues en argent;75.000000;75;0;0
164;http://www.bijouteriedeperles.fr/img/p/2/4/5/245.jpg;Bracelet manchette  et perle de Tahiti;BRAMAN1P;Bracelets;60.000000;60;3;1
50;http://www.bijouteriedeperles.fr/img/p/6/7/67.jpg;Sautoir de perles de Tahiti sur corde;COC16;Sautoirs et colliers;79.000000;79;63;1
172;http://www.bijouteriedeperles.fr/img/p/2/8/3/283.jpg;"Set perles de tahiti Moana""""";SETMOANA;Pendentifs;160.000000;160;0;0
115;http://www.bijouteriedeperles.fr/img/p/1/5/9/159.jpg;Pendentif en nacre et perle;PENTONI2;Bijoux en nacre;99.000000;99;1;1
58;http://www.bijouteriedeperles.fr/img/p/7/7/77.jpg;Collier + bracelet perles de Tahiti;COBRA3;Sautoirs et colliers;199.000000;199;11;1
180;http://www.bijouteriedeperles.fr/img/p/2/9/8/298.jpg;"Collier caoutchouc Ta'aroa"" et perle de Tahiti""";COLTAA1P;Colliers;80.000000;80;9;1
123;http://www.bijouteriedeperles.fr/img/p/1/7/2/172.jpg;"Pendentif  perle de Tahiti L'Homme et la mer""""";PECAH04;Pendentifs;59.000000;59;0;1
66;http://www.bijouteriedeperles.fr/img/p/8/5/85.jpg;Perle de Tahiti sur pendentif en argent;PP03;Pendentifs en argent;30.000000;30;28;1
9;http://www.bijouteriedeperles.fr/img/p/2/5/25.jpg;Pendentif Or et perle de Tahiti Luana;PEOLO1P;Pendentifs en or;384.000000;384;5;1
131;http://www.bijouteriedeperles.fr/img/p/1/8/4/184.jpg;Pendentif Croix en argent;PEARCROIX;Accueil;80.000000;80;2;1
74;http://www.bijouteriedeperles.fr/img/p/9/3/93.jpg;"Pendentif perle de Tahiti sur Or Heiata""""";PEOR4P;Pendentifs en or;394.500000;394.5;4;1
17;http://www.bijouteriedeperles.fr/img/p/3/3/33.jpg;Collier cuir 2 perles de Tahiti;COC1P;Colliers divers avec perles;40.000000;40;46;1
140;http://www.bijouteriedeperles.fr/img/p/1/9/8/198.jpg;"Bracelet nacre gravée Poemiti""""";BRAATN4P2;Accueil;75.000000;75;-5;1
25;http://www.bijouteriedeperles.fr/img/p/4/2/42.jpg;"Bague perles de Tahiti en argent Tautira""""";BA133;Accueil;115.000000;115;7;0
148;http://www.bijouteriedeperles.fr/img/p/2/1/6/216.jpg;"Pendentif perle de Tahiti Heretahi""""";PEO2CO1P2;Pendentifs en or;259.000000;259;10;1
93;http://www.bijouteriedeperles.fr/img/p/1/1/1/111.jpg;Spécial St Valentin : collier + bracelet;COS01BRC18;Colliers divers avec perles;174.000000;174;4;0
36;http://www.bijouteriedeperles.fr/img/p/5/3/53.jpg;"Pendentif perle de Tahiti Black Tiki""""";PECAH07;Pendentifs;50.000000;50;0;1
159;http://www.bijouteriedeperles.fr/img/p/2/3/5/235.jpg;Bracelet perles de Tahiti 3 rangs ;BRASHA3RP2;Bracelets de perles ;130.000000;130;6;1
101;http://www.bijouteriedeperles.fr/img/p/1/1/9/119.jpg;"Bague perle de Tahiti, en argent Moehau""""";BAARO1P;Bagues en argent;52.000000;52;0;0
45;http://www.bijouteriedeperles.fr/img/p/6/2/62.jpg;Boucles 3 perles de Tahiti;BOTRICOL;Boucles en or;262.000000;262;3;0
167;http://www.bijouteriedeperles.fr/img/p/2/5/7/257.jpg;Bracelet cuir manchette et perle de Tahiti;BRACM1P;Bracelets;27.000000;27;0;0
109;http://www.bijouteriedeperles.fr/img/p/1/4/5/145.jpg;"Pendentif Or Poehere""""";PEORS2P;Pendentifs en or;394.500000;394.5;3;1
53;http://www.bijouteriedeperles.fr/img/p/7/0/70.jpg;"Sautoir perles de Tahiti Coucher de soleil""""";RUB016;Sautoirs et colliers;54.000000;54;18;1
175;http://www.bijouteriedeperles.fr/img/p/2/8/6/286.jpg;"Set perles de tahiti Hina""""";SETHINA;Pendentifs;160.000000;160;0;0
118;http://www.bijouteriedeperles.fr/img/p/1/6/2/162.jpg;"Bracelet perle de Tahiti Océan""";BRCAHO2;Bracelets en caoutchouc;66.000000;66;0;0
61;http://www.bijouteriedeperles.fr/img/p/8/0/80.jpg;"Pendentif en or et perles de Tahiti Trio""""";PEO3PI;Pendentifs en or;120.000000;120;36;1
126;http://www.bijouteriedeperles.fr/img/p/1/7/8/178.jpg;Perle de Tahiti sur pendentif fleur de Tiare;PEACTIA;Pendentifs;49.000000;49;2;1
69;http://www.bijouteriedeperles.fr/img/p/8/8/88.jpg;Perle de Tahiti sur pendentif coeur;PECO1;Pendentifs en argent;50.000000;50;2;1
12;http://www.bijouteriedeperles.fr/img/p/2/8/28.jpg;"Bracelet Homme Force Maohi""""";BRHC02;Bracelets;75.000000;75;3;1
194;http://www.bijouteriedeperles.fr/img/p/3/3/1/331.jpg;Pendantif Homme et perle de tahiti;CAH01;Homme;75.000000;75;5;1
28;http://www.bijouteriedeperles.fr/img/p/4/5/45.jpg;Collier caoutchouc et perle gravée;COG1P;Colliers;58.000000;58;82;1
31;http://www.bijouteriedeperles.fr/img/p/4/8/48.jpg;Pendentif perle de Tahiti Papeno'o iti;CODENT01;Pendentifs;50.000000;50;0;1
154;http://www.bijouteriedeperles.fr/img/p/2/2/3/223.jpg;Bague Vaimiti;BAAVAI;Promos;99.000000;99;0;0
96;http://www.bijouteriedeperles.fr/img/p/1/1/4/114.jpg;Bague en argent perle de Tahiti;BAARFL1P;Accueil;99.000000;99;0;0
39;http://www.bijouteriedeperles.fr/img/p/5/6/56.jpg;Pendentif Tiki en argent;PENTIKIAR;Pendentifs;67.000000;67;0;1
162;http://www.bijouteriedeperles.fr/img/p/2/4/2/242.jpg;"Collier perles de Tahiti Poeani""""";COTRE20P;Colliers divers avec perles;199.000000;199;0;1
104;http://www.bijouteriedeperles.fr/img/p/1/3/7/137.jpg;Pendentif Tiki et perle de Tahiti;PENTIKIA2;Pendentifs;67.000000;67;0;0
48;http://www.bijouteriedeperles.fr/img/p/6/5/65.jpg;"Boucles perles de Tahiti et argent Amour et Passion""""";BOAP02;Boucles en argent;69.000000;69;1;1
170;http://www.bijouteriedeperles.fr/img/p/2/6/9/269.jpg;"Bague grappe Manihi""  """;BAAGR10P;Bagues en argent;150.000000;150;0;0
113;http://www.bijouteriedeperles.fr/img/p/1/5/3/153.jpg;"Bague en or, 2 perles Lea""""";BAOR2P;Bagues en or;212.000000;212;34;1
56;http://www.bijouteriedeperles.fr/img/p/7/5/75.jpg;Collier perles de Tahiti cerclées;COS01;Sautoirs et colliers;125.000000;125;0;1
178;http://www.bijouteriedeperles.fr/img/p/2/9/2/292.jpg;"Collier en nacre Tiare Here""""";COLNAC;Colliers;460.000000;460;4;1
121;http://www.bijouteriedeperles.fr/img/p/1/6/9/169.jpg;"Bracelet perle de Tahiti Papeete """"";BRCABOR1P;Bracelets de perles ;23.000000;23;89;1
64;http://www.bijouteriedeperles.fr/img/p/8/3/83.jpg;"Pendentif perle de Tahiti Lune""""";BAO257;Pendentifs en argent;78.000000;78;3;0
129;http://www.bijouteriedeperles.fr/img/p/1/8/0/180.jpg;Bracelet perles de Tahiti sur élastique;BRAPELA;Bracelets de perles ;67.000000;67;-26;1
72;http://www.bijouteriedeperles.fr/img/p/9/1/91.jpg;Pendentif Feuille de URU;PEAURU;Pendentifs;74.500000;74.5;0;0
15;http://www.bijouteriedeperles.fr/img/p/3/1/31.jpg;"Boucles perles de Tahiti et argent Horizon""""";BO3C;Boucles en argent;72.000000;72;0;0
197;http://www.bijouteriedeperles.fr/img/p/3/4/0/340.jpg;Bracelet 5 Archipels de la Polynésie Française;BRA05;Accueil;48.000000;48;0;1
138;http://www.bijouteriedeperles.fr/img/p/1/9/4/194.jpg;Bracelet nacre gravée;BRAATNGR4P;Bijoux en nacre;42.000000;42;0;1
80;http://www.bijouteriedeperles.fr/img/p/1/2/6/126.jpg;Bracelet de perles de Tahiti cerclées;BRC18;Bracelets de perles ;70.000000;70;386;1
23;http://www.bijouteriedeperles.fr/img/p/4/0/40.jpg;"Bracelet perle de Tahiti Vogue""""";BRAACHO02;Bracelets;49.000000;49;0;0
146;http://www.bijouteriedeperles.fr/img/p/2/1/0/210.jpg;Bracelet Papillon et perle de Tahiti;BRAPAP1P;Bracelets;25.000000;25;8;1
88;http://www.bijouteriedeperles.fr/img/p/1/0/7/107.jpg;Pendentif en argent 04 (1 en stock);P1S1PZ4;Pendentifs en argent;74.500000;74.5;0;0
149;http://www.bijouteriedeperles.fr/img/p/2/1/7/217.jpg;"Pendentif perle de Tahiti Heiaitu""""";PEO2CO1P;Pendentifs en or;259.000000;259;9;1
91;http://www.bijouteriedeperles.fr/img/p/1/1/0/110.jpg;"Pendentif perle de Tahiti Heremanu""""";PEOCOE1P2;Pendentifs en or;207.000000;207;2;1
34;http://www.bijouteriedeperles.fr/img/p/5/1/51.jpg;Pendentif raie et perle de Tahiti;PEARAIE;Homme;75.000000;75;3;1
157;http://www.bijouteriedeperles.fr/img/p/2/2/7/227.jpg;"Bague perle de Tahiti Inoa""""";BAAINOA1P;Bagues en argent;75.000000;75;0;0
99;http://www.bijouteriedeperles.fr/img/p/1/1/7/117.jpg;"Bracelet Lina""""";BRAARRIG2;Bracelets en acier;24.500000;24.5;0;0
42;http://www.bijouteriedeperles.fr/img/p/5/9/59.jpg;"Bracelet keishis Maimiti""""";BRAA5K;Bracelets en argent;30.000000;30;29;1
165;http://www.bijouteriedeperles.fr/img/p/2/4/6/246.jpg;Collier V - Vahine Tahiti ;COLVT5P;Colliers;90.000000;90;-4;1
107;http://www.bijouteriedeperles.fr/img/p/1/4/3/143.jpg;"Collier en Or Sensualité""""";COO5PCR;Colliers divers avec perles;1344.000000;1344;0;1
51;http://www.bijouteriedeperles.fr/img/p/6/8/68.jpg;"Collier avec perles de Tahiti Gauguin""""";COGC03;Colliers divers avec perles;125.000000;125;17;1
173;http://www.bijouteriedeperles.fr/img/p/2/8/4/284.jpg;"Set perles de tahiti Here""""";SETHERE;Pendentifs;160.000000;160;0;0
116;http://www.bijouteriedeperles.fr/img/p/1/6/0/160.jpg;Bague 4 perles de Tahiti en argent;BA4P;Bagues en argent;148.000000;148;0;0
59;http://www.bijouteriedeperles.fr/img/p/7/8/78.jpg;Pendentif perle de Tahiti sur Fleur de Tiare;COFL01;Pendentifs;49.000000;49;1;0
124;http://www.bijouteriedeperles.fr/img/p/1/7/4/174.jpg;"Perles de Tahiti sur pendentif or Poehina""""";PEOR4P2;Pendentifs en or;279.000000;279;2;1
67;http://www.bijouteriedeperles.fr/img/p/8/6/86.jpg;"3 perles de Tahiti sur pendentif en argent Trio""""";PEA3PS;Pendentifs en argent;154.000000;154;10;1
10;http://www.bijouteriedeperles.fr/img/p/2/6/26.jpg;"Bague Perle de Tahiti et Argent Manavai""""";BARMANA1P;Bagues en argent;100.000000;100;1;0
190;http://www.bijouteriedeperles.fr/img/p/3/2/5/325.jpg;Boucles d'oreilles perles de Tahiti;BCOR65;Accueil;80.000000;80;10;1
133;http://www.bijouteriedeperles.fr/img/p/1/8/5/185.jpg;Parure perles de Tahiti boucles + pendentif cône;PARBOPENAR01;Boucles en argent;199.000000;199;0;1
75;http://www.bijouteriedeperles.fr/img/p/9/4/94.jpg;"Pendentif Or Naia""""";PEORS2P2;Pendentifs en or;279.000000;279;3;1
18;http://www.bijouteriedeperles.fr/img/p/3/4/34.jpg;"Sautoir perles de Tahiti Elegancia""""";COPELO2;Sautoirs et colliers;338.000000;338;1;1
141;http://www.bijouteriedeperles.fr/img/p/2/0/1/201.jpg;"Lot de 10 Colliers Aviator""""";LOT10CO;Lots;85.000000;85;10;1
26;http://www.bijouteriedeperles.fr/img/p/4/3/43.jpg;"Bague perle de Tahiti en argent Heikura""""";BAJO1P02;Bagues en argent;65.000000;65;5;0
29;http://www.bijouteriedeperles.fr/img/p/4/6/46.jpg;Collier caoutchouc Gentleman;COH01;Colliers;54.000000;54;94;1
152;http://www.bijouteriedeperles.fr/img/p/2/2/0/220.jpg;"Parure collier + bracelet Aviator""""";PACOBRAAVIA;Promos;45.000000;45;20;0
94;http://www.bijouteriedeperles.fr/img/p/1/1/2/112.jpg;"Bracelet Flora"" 3 perles""";BRARIG3P;Bracelets en acier;67.000000;67;0;0
37;http://www.bijouteriedeperles.fr/img/p/5/4/54.jpg;"Bague perle de Tahiti en or Moorea""""";BAO3T1P;Bagues en or;234.000000;234;7;1
160;http://www.bijouteriedeperles.fr/img/p/2/3/9/239.jpg;"Perles de Tahiti boucles d'oreilles Iriata""""";BOAIRI1P;Boucles en argent;99.000000;99;0;0
102;http://www.bijouteriedeperles.fr/img/p/1/2/0/120.jpg;"Bague perles de Tahiti en argent Belle saison""""";BAA2PTM;Bagues en argent;115.000000;115;5;0
46;http://www.bijouteriedeperles.fr/img/p/6/3/63.jpg;Boucles d'oreilles Keshis;BOGO6K;Boucles en or;52.000000;52;10;1
168;http://www.bijouteriedeperles.fr/img/p/2/6/0/260.jpg;"Bracelet Pêcheur"" et perle de Tahiti""";BRAAC1P;Bracelets;52.000000;52;0;1
110;http://www.bijouteriedeperles.fr/img/p/1/4/6/146.jpg;"Pendentif Or Tiare""""";PEORTIA;Pendentifs en or;454.000000;454;3;1
54;http://www.bijouteriedeperles.fr/img/p/7/3/73.jpg;"Collier perles de Tahiti Ibis""""";C40PR;Sautoirs et colliers;320.000000;320;4;1
176;http://www.bijouteriedeperles.fr/img/p/2/8/7/287.jpg;"Set perles de tahiti Reva""""";SETREVA;Pendentifs;160.000000;160;0;0
62;http://www.bijouteriedeperles.fr/img/p/8/1/81.jpg;"Pendentif perle de Tahiti Soleil""""";PEA1PSO;Pendentifs en argent;98.000000;98;0;0
184;http://www.bijouteriedeperles.fr/img/p/3/1/1/311.jpg;Bague en U 2Perles ;BAG2P;Accueil;100.000000;100;9;1
70;http://www.bijouteriedeperles.fr/img/p/8/9/89.jpg;"Perles de Tahiti sur pendentif Duo"" """;P128;Pendentifs en argent;50.000000;50;0;0
13;http://www.bijouteriedeperles.fr/img/p/2/9/29.jpg;"Bracelet perle de Tahiti Aviator""""";BRACO3;Homme;20.000000;20;59;1
195;http://www.bijouteriedeperles.fr/img/p/3/3/3/333.jpg;Bague Tiare Etincellante ;BA201901;Accueil;95.000000;95;12;1
136;http://www.bijouteriedeperles.fr/img/p/1/9/2/192.jpg;"Bracelet perles de Tahiti et nacre Nina""""";BRAATN4P;Bracelets;42.000000;42;3;1
78;http://www.bijouteriedeperles.fr/img/p/1/2/4/124.jpg;Bracelet keishis en goldfilled;BRO5K;Bracelets en goldfilled;89.000000;89;19;1
21;http://www.bijouteriedeperles.fr/img/p/3/8/38.jpg;"Boucles en perles de Tahiti Maiana""""";BOCER8P;Boucles en argent;49.500000;49.5;49;1
144;http://www.bijouteriedeperles.fr/img/p/2/0/6/206.jpg;Bracelet tressé 3 rangs;BRASHA3RP;Bracelets de perles ;100.000000;100;-3;1
89;http://www.bijouteriedeperles.fr/img/p/1/0/8/108.jpg;"Bracelet perle de Tahiti Surf""""";BRCA01;Bracelets;20.000000;20;57;1
32;http://www.bijouteriedeperles.fr/img/p/4/9/49.jpg;"Pendentif Ecume""""";PECAH06;Pendentifs;50.000000;50;0;1
155;http://www.bijouteriedeperles.fr/img/p/2/2/4/224.jpg;Perles de Tahiti et coeurs en bracelet;BRACONA4P;Bracelets en argent;49.000000;49;-2;1
97;http://www.bijouteriedeperles.fr/img/p/1/1/5/115.jpg;Shamballa et perles de Tahiti;28;Bracelets;28.000000;28;43;1
40;http://www.bijouteriedeperles.fr/img/p/5/7/57.jpg;"Bague en or Vaipoe""""";BAORVAI;Bagues en or;206.000000;206;9;1
163;http://www.bijouteriedeperles.fr/img/p/2/4/4/244.jpg;3 perles de Tahiti en collier argent;COARCH3P;Colliers divers avec perles;199.000000;199;99;1
105;http://www.bijouteriedeperles.fr/img/p/1/4/0/140.jpg;"Pendentif Mordu de toi""""";PEAHAM;Pendentifs;50.000000;50;0;1
49;http://www.bijouteriedeperles.fr/img/p/6/6/66.jpg;"Collier avec perles de Tahiti sur cuir marron Tetia""""";COCUIR7P;Colliers divers avec perles;199.000000;199;3;1
171;http://www.bijouteriedeperles.fr/img/p/2/7/0/270.jpg;"Set perles de tahiti Mahana""""";SETMAHANA;Pendentifs;160.000000;160;0;0
114;http://www.bijouteriedeperles.fr/img/p/1/5/7/157.jpg;Pendentif Hameçon en nacre et perle;PENTONI1;Pendentifs;99.000000;99;0;1
57;http://www.bijouteriedeperles.fr/img/p/7/6/76.jpg;Collier en keshis et argent;COKESHI;Sautoirs et colliers;119.000000;119;14;1
122;http://www.bijouteriedeperles.fr/img/p/1/7/0/170.jpg;"Collier perle de Tahiti Papeete""""";CO54;Colliers divers avec perles;28.000000;28;24;1
65;http://www.bijouteriedeperles.fr/img/p/8/4/84.jpg;"Pendentif perle de Tahiti Déesse""""";PEC27;Pendentifs en argent;79.000000;79;3;1
8;http://www.bijouteriedeperles.fr/img/p/2/4/24.jpg;"Pendentif perle de Tahiti Mehiata""""";PEAME1P;Pendentifs;74.500000;74.5;1;0
188;http://www.bijouteriedeperles.fr/img/p/3/2/0/320.jpg;Bracelet 4 rangs;BRAC46;Accueil;128.000000;128;5;1
130;http://www.bijouteriedeperles.fr/img/p/1/8/3/183.jpg;"Bracelet perle de Tahiti Elastica""""";BRAELA01P;Bracelets;16.000000;16;32;1
73;http://www.bijouteriedeperles.fr/img/p/9/2/92.jpg;"Pendentif perle de Tahiti Herearii""""";PEOHE1P;Pendentifs en or;207.000000;207;4;1
16;http://www.bijouteriedeperles.fr/img/p/3/5/35.jpg;Sautoir de perles naturelles/keshis;SAUKESH01;Sautoirs et colliers;295.000000;295;1;1
198;http://www.bijouteriedeperles.fr/img/p/3/4/1/341.jpg;Collier Vahine ;COLV01;Accueil;95.000000;95;10;1
139;http://www.bijouteriedeperles.fr/img/p/1/9/7/197.jpg;"Bracelet 4 perles de Tahiti Rava Here""""";BRAOR4P;Bracelets en or;719.000000;719;0;1
81;http://www.bijouteriedeperles.fr/img/p/1/2/7/127.jpg;"Bracelet perle de Tahiti Timeri""""";BRCABAR1P;Bracelets de perles ;36.000000;36;187;1
24;http://www.bijouteriedeperles.fr/img/p/4/1/41.jpg;"Bracelet Miti""""";BRCAH05;Bracelets;66.000000;66;2;0
147;http://www.bijouteriedeperles.fr/img/p/2/1/3/213.jpg;Bracelet perles de Tahiti 4 rangs - beige;BRASHBEI4RP;Bracelets de perles ;150.000000;150;-1;1
150;http://www.bijouteriedeperles.fr/img/p/2/1/8/218.jpg;Set Les trois coeurs;SETCOC01;Pendentifs en argent;189.000000;189;0;1
92;http://www.bijouteriedeperles.fr/img/p/3/1/7/317.jpg;"Collier 1 Perle Aviator""""";BRACO1PBQ;Bracelets en cuir;160.000000;160;1;1
35;http://www.bijouteriedeperles.fr/img/p/5/2/52.jpg;"Pendentif Homme Ocean""""";COHCA01;Pendentifs;52.000000;52;0;1
158;http://www.bijouteriedeperles.fr/img/p/2/2/9/229.jpg;"Perle de Tahiti en pendentif Itia""""";PEAITIA1P;Pendentifs en argent;75.000000;75;0;0
100;http://www.bijouteriedeperles.fr/img/p/1/1/8/118.jpg;"Pendentif perle de Tahiti Amy""""";PEAR1PSAT1;Pendentifs en argent;74.500000;74.5;0;1
43;http://www.bijouteriedeperles.fr/img/p/6/0/60.jpg;"Boucles perles de Tahiti, et argent Déesse""""";BOA1PCO;Boucles en argent;75.000000;75;9;1
166;http://www.bijouteriedeperles.fr/img/p/2/5/4/254.jpg;Pince cravate et perle de Tahiti;PC1P;Pince cravate;19.000000;19;18;1
108;http://www.bijouteriedeperles.fr/img/p/1/4/4/144.jpg;"Pendentif Or Rose""""";PEOROSE;Pendentifs en or;484.000000;484;0;1
52;http://www.bijouteriedeperles.fr/img/p/6/9/69.jpg;"Collier perle de Tahiti Elégance""""";CON6;Colliers divers avec perles;125.000000;125;3;1
174;http://www.bijouteriedeperles.fr/img/p/2/8/5/285.jpg;"Set perles de tahiti Hine""""";SETHINE;Pendentifs;160.000000;160;0;0
117;http://www.bijouteriedeperles.fr/img/p/1/6/1/161.jpg;Bracelet 3 perles sur cuir;BRA3C3P;Bracelets en cuir;30.000000;30;4;1
60;http://www.bijouteriedeperles.fr/img/p/7/9/79.jpg;"Collier perles de Tahiti A ravir""""";CO42P;Sautoirs et colliers;2449.000000;2449;2;1
182;http://www.bijouteriedeperles.fr/img/p/3/0/8/308.jpg;Sautoir 2rangs VENISE;SAUTPERL2R;Accueil;600.000000;600;4;1
125;http://www.bijouteriedeperles.fr/img/p/1/7/5/175.jpg;"Pendentif perle de Tahiti Heremoana""""";PEOCOE1P;Pendentifs en or;259.000000;259;3;1
68;http://www.bijouteriedeperles.fr/img/p/8/7/87.jpg;Perle de Tahiti sur pendentif or;PP07;Pendentifs en or;50.000000;50;0;1
11;http://www.bijouteriedeperles.fr/img/p/2/7/27.jpg;Pendentif Rame en acier;PEACRAM;Pendentifs;50.000000;50;8;1
192;http://www.bijouteriedeperles.fr/img/p/3/2/8/328.jpg;Bracelet de tissu et perle de Tahiti ;BRACTS28;Accueil;10.000000;10;13;1
134;http://www.bijouteriedeperles.fr/img/p/1/8/6/186.jpg;Collier perles de Tahiti et nacres;COTONI3N2P;Colliers divers avec perles;80.000000;80;0;0
76;http://www.bijouteriedeperles.fr/img/p/1/2/3/123.jpg;"Bracelet en OR Toi&Moi"", 2 perles de Tahiti""";BRATOTM;Bracelets en or;719.000000;719;1;1
19;http://www.bijouteriedeperles.fr/img/p/3/1/5/315.jpg;"Boucles perles de Tahiti et OR Passion""""";BAPO01;Boucles d'oreilles;118.000000;118;8;1
142;http://www.bijouteriedeperles.fr/img/p/2/0/2/202.jpg;"Boucles d'oreilles en or et perles de Tahiti Lina""""";BOORGOU1P;Boucles en or;262.000000;262;-2;1
84;http://www.bijouteriedeperles.fr/img/p/1/3/0/130.jpg;Bracelet Shamballa, 10 perles de Tahiti;BRASHA10P;Bracelets de perles ;69.000000;69;10;1
27;http://www.bijouteriedeperles.fr/img/p/4/4/44.jpg;Collier cuir et perle gravée;COCU1PG;Colliers;32.000000;32;8;1
30;http://www.bijouteriedeperles.fr/img/p/4/7/47.jpg;"Collier en cuir Aviator""""";CC03;Colliers;25.000000;25;173;1
153;http://www.bijouteriedeperles.fr/img/p/2/2/2/222.jpg;"Pendentif perle de Tahiti Heinoa""""";PEAR1PSAT3;Promos;75.000000;75;0;0
95;http://www.bijouteriedeperles.fr/img/p/1/1/3/113.jpg;Boucles TIKI en or;BOTIKI;Boucles en or;91.000000;91;0;0
38;http://www.bijouteriedeperles.fr/img/p/5/5/55.jpg;"Bague Duo"" perle de Tahiti, en or""";BAOCG03;Bagues en or;268.000000;268;11;1
161;http://www.bijouteriedeperles.fr/img/p/2/4/0/240.jpg;"Bracelet Keshis Kainalu""""";bracelet-keshis-tahiti-BRAKE3R;Bracelets avec keshis;150.000000;150;-2;1
103;http://www.bijouteriedeperles.fr/img/p/1/3/3/133.jpg;"Bague perle de Tahiti et Or Anita""""";BAO3T1P2;Bagues en or;379.000000;379;26;1
47;http://www.bijouteriedeperles.fr/img/p/6/4/64.jpg;"Boucles perles de Tahiti Emere""""";BOAEME1P;Boucles en argent;74.500000;74.5;5;1
169;http://www.bijouteriedeperles.fr/img/p/2/6/2/262.jpg;"Bracelet Fashion color"" et perle de Tahiti""";BRAFC1P;Bracelets;19.000000;19;0;0
112;http://www.bijouteriedeperles.fr/img/p/1/4/9/149.jpg;Bracelet en os, nacre et perle;BRATONI1;Bracelets en cuir;149.000000;149;0;0
55;http://www.bijouteriedeperles.fr/img/p/7/4/74.jpg;"Collier Tea"" avec 3 perles de Tahiti""";COO3PI;Colliers divers avec perles;99.000000;99;9;1
177;http://www.bijouteriedeperles.fr/img/p/2/8/8/288.jpg;Bracelet tressé avec des perles de tahiti;BRAT10P;Bracelets;50.000000;50;9;1
120;http://www.bijouteriedeperles.fr/img/p/1/6/6/166.jpg;"Porte-sac Pour vous""""";PS01;Porte-sacs;33.000000;33;0;0
63;http://www.bijouteriedeperles.fr/img/p/8/2/82.jpg;"Pendentif perle de Tahiti Désir""""";PAPI21;Pendentifs en argent;119.000000;119;1;1
185;http://www.bijouteriedeperles.fr/img/p/3/1/3/313.jpg;Pendentif Grappe de Raisin ;PGRR10P;Accueil;199.000000;199;1;1
128;http://www.bijouteriedeperles.fr/img/p/1/7/9/179.jpg;"Pendentif perle de Tahiti Herehia""""";PEOHER1P;Pendentifs en or;259.000000;259;3;1
71;http://www.bijouteriedeperles.fr/img/p/9/0/90.jpg;"Pendentif perle de Tahiti Maeva""""";PEAMA;Pendentifs en argent;50.000000;50;6;1
14;http://www.bijouteriedeperles.fr/img/p/3/0/30.jpg;Bracelet cuir 3 perles de Tahiti;BRACUI3P;Bracelets en cuir;40.000000;40;75;1
196;http://www.bijouteriedeperles.fr/img/p/3/3/7/337.jpg;Collier Tiare Etincellante;CO201901;Accueil;95.000000;95;11;1
137;http://www.bijouteriedeperles.fr/img/p/1/9/3/193.jpg;"3 perles de Tahiti sur pendentif or Ela""""";PEOELA3P;Pendentifs en or;262.000000;262;3;1
79;http://www.bijouteriedeperles.fr/img/p/1/2/5/125.jpg;"Bracelet perles de Tahiti Mix""""";BRAKE3T;Bracelets de perles ;150.000000;150;44;1
22;http://www.bijouteriedeperles.fr/img/p/3/9/39.jpg;"Boucles perles de Tahiti et or Images & passions""""";BOP01;Boucles en or;109.000000;109;64;1
145;http://www.bijouteriedeperles.fr/img/p/2/0/9/209.jpg;Boucles Keshis;BOK01;Boucles en argent;25.000000;25;56;1
87;http://www.bijouteriedeperles.fr/img/p/1/0/6/106.jpg;Couple de Shamballa perles de Tahiti;BRASHA3PSTVA;Bracelets;49.000000;49;5;1
106;http://www.bijouteriedeperles.fr/img/p/1/4/2/142.jpg;"Bracelet perles de Tahiti IBIS""""";BRAPR1;Bracelets de perles ;125.000000;125;14;1
82;http://www.bijouteriedeperles.fr/img/p/1/2/8/128.jpg;Bracelet de petits keishis;BRAPEKE;Bracelets avec keshis;67.000000;67;196;1
135;http://www.bijouteriedeperles.fr/img/p/1/9/1/191.jpg;"Bracelet perles de Tahiti Joyce""""";BRAATN8P;Bracelets;67.000000;67;-8;1
77;http://www.bijouteriedeperles.fr/img/p/1/2/2/122.jpg;"Bracelet Or et perles de Tahiti Cannelle""""";BRAO5P;Bracelets en or;140.000000;140;11;1
143;http://www.bijouteriedeperles.fr/img/p/2/0/5/205.jpg;Bracelet tressé 4 rangs;BRASHA4RP;Bracelets de perles ;150.000000;150;-7;1
85;http://www.bijouteriedeperles.fr/img/p/1/3/1/131.jpg;Bracelet de perles naturelles/Keshis;BRAKESOIE;Bracelets avec keshis;124.000000;124;13;1
83;http://www.bijouteriedeperles.fr/img/p/1/2/9/129.jpg;Bracelet de keishis croisés;BRAKEICRO;Bracelets avec keshis;59.000000;59;0;0
119;http://www.bijouteriedeperles.fr/img/p/1/6/5/165.jpg;Collier câble or et 3 perles de Tahiti;COCAOR3P;Colliers divers avec perles;399.000000;399;0;1
86;http://www.bijouteriedeperles.fr/img/p/1/3/2/132.jpg;Bracelet TAHITI ;BRANATAHI;Bracelets en cuir;16.500000;16.5;20;0
179;http://www.bijouteriedeperles.fr/img/p/2/9/7/297.jpg;"Pendentif Tiki Mana"" et perle de Tahiti""";PENTIKI1P;Pendentifs;50.000000;50;1;0
181;http://www.bijouteriedeperles.fr/img/p/3/1/0/310.jpg;Porte clés et perle de Tahiti gravée;PC1P;Porte clés;17.000000;17;4;1
189;http://www.bijouteriedeperles.fr/img/p/3/2/2/322.jpg;Bracelet manchette et perle de Tahiti;BRACM35;Accueil;48.000000;48;7;1
183;http://www.bijouteriedeperles.fr/img/p/3/0/9/309.jpg;Parure de Nacre Collier + Bracelet;PARNACR2P;Accueil;280.000000;280;1;1
41;http://www.bijouteriedeperles.fr/img/p/5/8/58.jpg;"Bague en argent Toi&Moi""""";BAO444A;Bagues en argent;105.000000;105;3;0
187;http://www.bijouteriedeperles.fr/img/p/3/1/8/318.jpg;Bracelet 2 Rangs;BRAC45;Accueil;78.000000;78;1;1
20;http://www.bijouteriedeperles.fr/img/p/3/7/37.jpg;Boucles 2 perles de Tahiti;BO2R;Boucles en argent;49.500000;49.5;42;1
151;http://www.bijouteriedeperles.fr/img/p/2/1/9/219.jpg;Collier Hinano;F1;Colliers divers avec perles;118.000000;118;0;1
199;http://www.bijouteriedeperles.fr/img/p/0.jpg;Collier et boucles d'oreilles en nacre ;COLNAC;Accueil;0.000000;0;0;1
